Charles Armentrout ST 558 Project 1
…
# function to combine two sets of tibbles
combine_results <- function(result1, result2) {
  combined_county_data <- bind_rows(result1$county_data, result2$county_data)
  combined_non_county_data <- bind_rows(result1$non_county_data, result2$non_county_data)
  return(list(county_data = combined_county_data, non_county_data = combined_non_county_data))
}
combined_results <- combine_results(result1, result2)
# access the combined tibbles
combined_county_data <- combined_results$county_data
combined_non_county_data <- combined_results$non_county_data
combined_county_data

# A tibble: 62,900 × 7
   area_name   STCOU `Item ID`  Enrollment  year measurement_type state_abbr
   <chr>       <chr> <chr>           <dbl> <dbl> <chr>            <chr>     
 1 Autauga, AL 01001 EDU010187D       6829  1987 EDU0101          AL        
 2 Autauga, AL 01001 EDU010188D       6900  1988 EDU0101          AL        
 3 Autauga, AL 01001 EDU010189D       6920  1989 EDU0101          AL        
 4 Autauga, AL 01001 EDU010190D       6847  1990 EDU0101          AL        
 5 Autauga, AL 01001 EDU010191D       7008  1991 EDU0101          AL        
 6 Autauga, AL 01001 EDU010192D       7137  1992 EDU0101          AL        
 7 Autauga, AL 01001 EDU010193D       7152  1993 EDU0101          AL        
 8 Autauga, AL 01001 EDU010194D       7381  1994 EDU0101          AL        
 9 Autauga, AL 01001 EDU010195D       7568  1995 EDU0101          AL        
10 Autauga, AL 01001 EDU010196D       7834  1996 EDU0101          AL        
# ℹ 62,890 more rows

combined_non_county_data

# A tibble: 1,060 × 7
   area_name     STCOU `Item ID`  Enrollment  year measurement_type division
   <chr>         <chr> <chr>           <dbl> <dbl> <chr>            <chr>   
 1 UNITED STATES 00000 EDU010187D   40024299  1987 EDU0101          ERROR   
 2 UNITED STATES 00000 EDU010188D   39967624  1988 EDU0101          ERROR   
 3 UNITED STATES 00000 EDU010189D   40317775  1989 EDU0101          ERROR   
 4 UNITED STATES 00000 EDU010190D   40737600  1990 EDU0101          ERROR   
 5 UNITED STATES 00000 EDU010191D   41385442  1991 EDU0101          ERROR   
 6 UNITED STATES 00000 EDU010192D   42088151  1992 EDU0101          ERROR   
 7 UNITED STATES 00000 EDU010193D   42724710  1993 EDU0101          ERROR   
 8 UNITED STATES 00000 EDU010194D   43369917  1994 EDU0101          ERROR   
 9 UNITED STATES 00000 EDU010195D   43993459  1995 EDU0101          ERROR   
10 UNITED STATES 00000 EDU010196D   44715737  1996 EDU0101          ERROR   
# ℹ 1,050 more rows
…
